module gitlab.com/hoangtranwork/file-rotate-logrus

go 1.12

require (
	github.com/fastly/go-utils v0.0.0-20180712184237-d95a45783239 // indirect
	github.com/jehiah/go-strftime v0.0.0-20171201141054-1d33003b3869 // indirect
	github.com/jonboulle/clockwork v0.1.0 // indirect
	github.com/lestrrat-go/envload v0.0.0-20180220234015-a3eb8ddeffcc // indirect
	github.com/lestrrat-go/file-rotatelogs v2.2.0+incompatible
	github.com/lestrrat-go/strftime v0.0.0-20180821113735-8b31f9c59b0f // indirect
	github.com/pkg/errors v0.8.1 // indirect
	github.com/sirupsen/logrus v1.3.0
	github.com/tebeka/strftime v0.0.0-20140926081919-3f9c7761e312 // indirect
)
